Estimating House Finch Breeding Season Length
…
nw_processed <- nest_watch %>% group_by(`Location ID`, Year) %>% 
  mutate(count = n()) %>% 
  filter(count>1) %>% 
  summarize(Nests = mean(count),
            Begin_Date = min(`First Lay Date`),
            End_Date = max(`Fledge Date`)) %>% 
  mutate(Season_Length = as.numeric(End_Date - Begin_Date))

`summarise()` has grouped output by 'Location ID'. You can override using the
`.groups` argument.

nw_processed

# A tibble: 24 × 6
# Groups:   Location ID [19]
   `Location ID`  Year Nests Begin_Date End_Date   Season_Length
   <chr>         <dbl> <dbl> <date>     <date>             <dbl>
 1 L1124878       2011     2 2011-04-01 2011-06-07            67
 2 L2117534       2013     2 2013-04-04 2013-06-13            70
 3 L2827933       2014     2 2014-04-20 2014-06-28            69
 4 L2947955       2015     2 2015-04-13 2015-06-26            74
 5 L2947955       2016     2 2016-03-24 2016-05-28            65
 6 L2947955       2017     2 2017-04-04 2017-06-26            83
 7 L3124697       2014     2 2014-05-22 2014-08-25            95
 8 L3134988       2014     2 2014-05-19 2014-08-17            90
 9 L3909210       2011     2 2011-04-11 2011-06-23            73
10 L3944472       2013     2 2013-05-21 2013-07-25            65
# ℹ 14 more rows
…
watts_processed <- watts %>% group_by(County, Year) %>% 
  filter(Year>1939) %>% 
  mutate(count = n()) %>% 
  filter(count>1) %>% 
  summarize(Nests = mean(count),
            Begin = min(AdjLayDate),
            End = max(AdjLayDate)+28) %>% 
  mutate(Season_Length = End - Begin)

`summarise()` has grouped output by 'County'. You can override using the
`.groups` argument.

watts_processed

# A tibble: 74 × 6
# Groups:   County [31]
   County               Year Nests Begin   End Season_Length
   <chr>               <dbl> <dbl> <dbl> <dbl>         <dbl>
 1 ?                    1988     2   107   196            89
 2 Alameda              1971     9   128   160            32
 3 Alameda              1973     2   103   143            40
 4 Butte County         1969     2   145   180            35
 5 Contra Costa County  1944     2   205   237            32
 6 El Dorado County     1988     7    89   168            79
 7 El Dorado County     1989     5   104   161            57
 8 El Dorado County     1990    12    92   172            80
 9 Humbolt              1995     3   150   230            80
10 Lake                 1993     2   197   253            56
# ℹ 64 more rows
…
